{
  "project_info": {
    "project_number": "624367607426",
    "firebase_url": "https://uat-norton-app.firebaseio.com",
    "project_id": "uat-norton-app",
    "storage_bucket": "uat-norton-app.appspot.com"
  },
  "client": [
    {
      "client_info": {
        "mobilesdk_app_id": "1:624367607426:android:823b7ab61bd38459",
        "android_client_info": {
          "package_name": "com.sg.R79A.NortonAbrasives.tablet"
        }
      },
      "oauth_client": [
        {
          "client_id": "624367607426-dhe1a7jfl31e4hee94etqtc91lln30kh.apps.googleusercontent.com",
          "client_type": 3
        }
      ],
      "api_key": [
        {
          "current_key": "AIzaSyB3r9GfrwwFj-dv-Y5riGEZ4QbV0UaEJZE"
        }
      ],
      "services": {
        "analytics_service": {
          "status": 1
        },
        "appinvite_service": {
          "status": 1,
          "other_platform_oauth_client": []
        },
        "ads_service": {
          "status": 2
        }
      }
    }
  ],
  "configuration_version": "1"
}